{
  "results": [
    {
      "id": 118488,
      "adult": false
    },
    {
      "id": 797420,
      "adult": false
    },
    {
      "id": 595674,
      "adult": false
    },
    {
      "id": 506343,
      "adult": false
    },
    {
      "id": 1576,
      "adult": false
    },
    {
      "id": 1235729,
      "adult": false
    },
    {
      "id": 346698,
      "adult": false
    },
    {
      "id": 1212073,
      "adult": false
    },
    {
      "id": 1235727,
      "adult": false
    },
    {
      "id": 1216598,
      "adult": false
    },
    {
      "id": 1229840,
      "adult": true
    },
    {
      "id": 1213202,
      "adult": false
    },
    {
      "id": 1235363,
      "adult": false
    },
    {
      "id": 1235732,
      "adult": false
    },
    {
      "id": 965292,
      "adult": false
    },
    {
      "id": 1037051,
      "adult": false
    },
    {
      "id": 1209764,
      "adult": false
    },
    {
      "id": 1221771,
      "adult": false
    },
    {
      "id": 1228696,
      "adult": false
    },
    {
      "id": 1231175,
      "adult": false
    },
    {
      "id": 1233228,
      "adult": false
    },
    {
      "id": 982573,
      "adult": false
    },
    {
      "id": 1211067,
      "adult": false
    },
    {
      "id": 1226944,
      "adult": false
    },
    {
      "id": 1233050,
      "adult": false
    },
    {
      "id": 1232069,
      "adult": false
    },
    {
      "id": 1235700,
      "adult": false
    },
    {
      "id": 1235599,
      "adult": false
    },
    {
      "id": 1235354,
      "adult": false
    },
    {
      "id": 1235415,
      "adult": false
    },
    {
      "id": 1235509,
      "adult": false
    },
    {
      "id": 1232370,
      "adult": false
    },
    {
      "id": 1235714,
      "adult": false
    },
    {
      "id": 877426,
      "adult": false
    },
    {
      "id": 1235706,
      "adult": false
    },
    {
      "id": 1176574,
      "adult": false
    },
    {
      "id": 1235526,
      "adult": false
    },
    {
      "id": 1235715,
      "adult": false
    },
    {
      "id": 1232721,
      "adult": false
    },
    {
      "id": 791373,
      "adult": false
    },
    {
      "id": 1233951,
      "adult": null
    },
    {
      "id": 588,
      "adult": false
    },
    {
      "id": 495764,
      "adult": false
    },
    {
      "id": 1059811,
      "adult": false
    },
    {
      "id": 1232718,
      "adult": false
    },
    {
      "id": 1233948,
      "adult": null
    },
    {
      "id": 746647,
      "adult": false
    },
    {
      "id": 1235710,
      "adult": false
    },
    {
      "id": 634,
      "adult": false
    },
    {
      "id": 10294,
      "adult": false
    },
    {
      "id": 572802,
      "adult": false
    },
    {
      "id": 359410,
      "adult": false
    },
    {
      "id": 15641,
      "adult": false
    },
    {
      "id": 1235719,
      "adult": false
    },
    {
      "id": 14703,
      "adult": false
    },
    {
      "id": 137620,
      "adult": false
    },
    {
      "id": 1223574,
      "adult": false
    },
    {
      "id": 346648,
      "adult": false
    },
    {
      "id": 156717,
      "adult": false
    },
    {
      "id": 31008,
      "adult": false
    },
    {
      "id": 1061720,
      "adult": false
    },
    {
      "id": 116149,
      "adult": false
    },
    {
      "id": 1235734,
      "adult": false
    },
    {
      "id": 463472,
      "adult": false
    },
    {
      "id": 80710,
      "adult": false
    },
    {
      "id": 37565,
      "adult": false
    },
    {
      "id": 10748,
      "adult": false
    },
    {
      "id": 459877,
      "adult": false
    },
    {
      "id": 1235720,
      "adult": false
    },
    {
      "id": 455,
      "adult": false
    },
    {
      "id": 448491,
      "adult": false
    },
    {
      "id": 1235735,
      "adult": false
    },
    {
      "id": 466420,
      "adult": false
    },
    {
      "id": 617871,
      "adult": false
    },
    {
      "id": 25355,
      "adult": false
    },
    {
      "id": 678,
      "adult": false
    },
    {
      "id": 255727,
      "adult": false
    },
    {
      "id": 661209,
      "adult": false
    },
    {
      "id": 930564,
      "adult": false
    },
    {
      "id": 1235736,
      "adult": false
    },
    {
      "id": 1235733,
      "adult": false
    },
    {
      "id": 1234731,
      "adult": false
    },
    {
      "id": 496630,
      "adult": false
    },
    {
      "id": 488652,
      "adult": false
    },
    {
      "id": 32295,
      "adult": false
    },
    {
      "id": 603772,
      "adult": false
    },
    {
      "id": 621161,
      "adult": false
    },
    {
      "id": 1235737,
      "adult": false
    },
    {
      "id": 790462,
      "adult": false
    },
    {
      "id": 185095,
      "adult": false
    },
    {
      "id": 302757,
      "adult": false
    },
    {
      "id": 1136799,
      "adult": false
    },
    {
      "id": 18197,
      "adult": false
    },
    {
      "id": 1015499,
      "adult": false
    },
    {
      "id": 9682,
      "adult": false
    },
    {
      "id": 1089588,
      "adult": false
    },
    {
      "id": 14212,
      "adult": false
    },
    {
      "id": 1235219,
      "adult": false
    },
    {
      "id": 11868,
      "adult": false
    },
    {
      "id": 14255,
      "adult": false
    }
  ],
  "page": 1,
  "total_pages": 62,
  "total_results": 6140
}
