{
  "results": [
    {
      "id": 4498462,
      "adult": false
    },
    {
      "id": 4498463,
      "adult": false
    },
    {
      "id": 4498464,
      "adult": false
    },
    {
      "id": 1857531,
      "adult": false
    },
    {
      "id": 4498465,
      "adult": false
    },
    {
      "id": 4498466,
      "adult": false
    },
    {
      "id": 4498467,
      "adult": false
    },
    {
      "id": 4498468,
      "adult": false
    },
    {
      "id": 1494276,
      "adult": false
    },
    {
      "id": 4498469,
      "adult": false
    },
    {
      "id": 4498470,
      "adult": false
    },
    {
      "id": 4498471,
      "adult": false
    },
    {
      "id": 4498472,
      "adult": false
    },
    {
      "id": 4498473,
      "adult": false
    },
    {
      "id": 4498474,
      "adult": false
    },
    {
      "id": 1654178,
      "adult": false
    },
    {
      "id": 4498475,
      "adult": false
    },
    {
      "id": 4498476,
      "adult": false
    },
    {
      "id": 4498477,
      "adult": false
    },
    {
      "id": 592574,
      "adult": false
    },
    {
      "id": 4498478,
      "adult": false
    },
    {
      "id": 4498479,
      "adult": false
    },
    {
      "id": 4498480,
      "adult": false
    },
    {
      "id": 4498481,
      "adult": false
    },
    {
      "id": 4498482,
      "adult": false
    },
    {
      "id": 4498483,
      "adult": false
    },
    {
      "id": 4498484,
      "adult": false
    },
    {
      "id": 4498485,
      "adult": false
    },
    {
      "id": 4498486,
      "adult": false
    },
    {
      "id": 4498487,
      "adult": false
    },
    {
      "id": 4498488,
      "adult": false
    },
    {
      "id": 4498489,
      "adult": false
    },
    {
      "id": 123455,
      "adult": false
    },
    {
      "id": 2004897,
      "adult": false
    },
    {
      "id": 4498490,
      "adult": false
    },
    {
      "id": 2131264,
      "adult": false
    },
    {
      "id": 4498491,
      "adult": false
    },
    {
      "id": 4498492,
      "adult": false
    },
    {
      "id": 2367878,
      "adult": false
    },
    {
      "id": 4445988,
      "adult": false
    },
    {
      "id": 4498493,
      "adult": false
    },
    {
      "id": 4498494,
      "adult": false
    },
    {
      "id": 4498495,
      "adult": false
    },
    {
      "id": 4498496,
      "adult": false
    },
    {
      "id": 4498497,
      "adult": false
    },
    {
      "id": 63763,
      "adult": false
    },
    {
      "id": 4498498,
      "adult": false
    },
    {
      "id": 4498499,
      "adult": false
    },
    {
      "id": 4498500,
      "adult": false
    },
    {
      "id": 4498501,
      "adult": false
    },
    {
      "id": 4498502,
      "adult": false
    },
    {
      "id": 4498503,
      "adult": false
    },
    {
      "id": 4498303,
      "adult": null
    },
    {
      "id": 4498504,
      "adult": false
    },
    {
      "id": 4498505,
      "adult": false
    },
    {
      "id": 4498506,
      "adult": false
    },
    {
      "id": 2727975,
      "adult": false
    },
    {
      "id": 4498507,
      "adult": false
    },
    {
      "id": 4498508,
      "adult": false
    },
    {
      "id": 4498509,
      "adult": false
    },
    {
      "id": 1097147,
      "adult": false
    },
    {
      "id": 1253454,
      "adult": false
    },
    {
      "id": 4498510,
      "adult": false
    },
    {
      "id": 3931870,
      "adult": false
    },
    {
      "id": 4498511,
      "adult": false
    },
    {
      "id": 4498512,
      "adult": false
    },
    {
      "id": 4498513,
      "adult": false
    },
    {
      "id": 4498514,
      "adult": false
    },
    {
      "id": 4498515,
      "adult": false
    },
    {
      "id": 107543,
      "adult": false
    },
    {
      "id": 2227331,
      "adult": false
    },
    {
      "id": 4312733,
      "adult": false
    },
    {
      "id": 4498516,
      "adult": false
    },
    {
      "id": 4498517,
      "adult": false
    },
    {
      "id": 4498518,
      "adult": false
    },
    {
      "id": 4498519,
      "adult": false
    },
    {
      "id": 4498520,
      "adult": false
    },
    {
      "id": 4498521,
      "adult": false
    },
    {
      "id": 3438632,
      "adult": null
    },
    {
      "id": 3614264,
      "adult": null
    },
    {
      "id": 4498522,
      "adult": false
    },
    {
      "id": 2350356,
      "adult": false
    },
    {
      "id": 4498523,
      "adult": false
    },
    {
      "id": 4498524,
      "adult": false
    },
    {
      "id": 4498525,
      "adult": false
    },
    {
      "id": 4498526,
      "adult": false
    },
    {
      "id": 4498527,
      "adult": false
    },
    {
      "id": 4473140,
      "adult": null
    },
    {
      "id": 4472621,
      "adult": null
    },
    {
      "id": 4472619,
      "adult": null
    },
    {
      "id": 4498528,
      "adult": false
    },
    {
      "id": 4487383,
      "adult": false
    },
    {
      "id": 4498529,
      "adult": false
    },
    {
      "id": 4498530,
      "adult": false
    },
    {
      "id": 4498531,
      "adult": false
    },
    {
      "id": 4498532,
      "adult": false
    },
    {
      "id": 4498533,
      "adult": false
    },
    {
      "id": 4498534,
      "adult": false
    },
    {
      "id": 4498535,
      "adult": false
    },
    {
      "id": 4498536,
      "adult": false
    }
  ],
  "page": 1,
  "total_pages": 44,
  "total_results": 4336
}
