{
  "results": [
    {
      "id": 1769,
      "adult": false
    },
    {
      "id": 90282,
      "adult": false
    },
    {
      "id": 241608,
      "adult": false
    },
    {
      "id": 203942,
      "adult": false
    },
    {
      "id": 243069,
      "adult": false
    },
    {
      "id": 236320,
      "adult": false
    },
    {
      "id": 211050,
      "adult": false
    },
    {
      "id": 244444,
      "adult": false
    },
    {
      "id": 137081,
      "adult": false
    },
    {
      "id": 243569,
      "adult": false
    },
    {
      "id": 71693,
      "adult": false
    },
    {
      "id": 70386,
      "adult": false
    },
    {
      "id": 243204,
      "adult": false
    },
    {
      "id": 118642,
      "adult": false
    },
    {
      "id": 229160,
      "adult": false
    },
    {
      "id": 243404,
      "adult": false
    },
    {
      "id": 243236,
      "adult": false
    },
    {
      "id": 244446,
      "adult": false
    },
    {
      "id": 210166,
      "adult": false
    },
    {
      "id": 126565,
      "adult": false
    },
    {
      "id": 204031,
      "adult": false
    },
    {
      "id": 22980,
      "adult": false
    },
    {
      "id": 120909,
      "adult": false
    },
    {
      "id": 242394,
      "adult": false
    },
    {
      "id": 129412,
      "adult": false
    },
    {
      "id": 106454,
      "adult": false
    },
    {
      "id": 224900,
      "adult": false
    },
    {
      "id": 114110,
      "adult": true
    },
    {
      "id": 67535,
      "adult": false
    },
    {
      "id": 19653,
      "adult": false
    },
    {
      "id": 243178,
      "adult": false
    },
    {
      "id": 223365,
      "adult": false
    },
    {
      "id": 244447,
      "adult": false
    },
    {
      "id": 89180,
      "adult": false
    },
    {
      "id": 233205,
      "adult": false
    },
    {
      "id": 232271,
      "adult": false
    },
    {
      "id": 209248,
      "adult": false
    },
    {
      "id": 68073,
      "adult": false
    },
    {
      "id": 130575,
      "adult": false
    },
    {
      "id": 244249,
      "adult": false
    },
    {
      "id": 128070,
      "adult": false
    },
    {
      "id": 73370,
      "adult": false
    },
    {
      "id": 244448,
      "adult": false
    },
    {
      "id": 232761,
      "adult": false
    },
    {
      "id": 31179,
      "adult": false
    },
    {
      "id": 116156,
      "adult": false
    },
    {
      "id": 244449,
      "adult": false
    },
    {
      "id": 94033,
      "adult": false
    },
    {
      "id": 244450,
      "adult": false
    },
    {
      "id": 233067,
      "adult": false
    },
    {
      "id": 100565,
      "adult": false
    },
    {
      "id": 157368,
      "adult": false
    },
    {
      "id": 224291,
      "adult": false
    },
    {
      "id": 236921,
      "adult": false
    },
    {
      "id": 244451,
      "adult": false
    },
    {
      "id": 70,
      "adult": false
    },
    {
      "id": 72351,
      "adult": false
    },
    {
      "id": 90326,
      "adult": false
    },
    {
      "id": 244404,
      "adult": false
    },
    {
      "id": 139474,
      "adult": false
    },
    {
      "id": 154827,
      "adult": false
    },
    {
      "id": 58761,
      "adult": false
    },
    {
      "id": 234725,
      "adult": false
    },
    {
      "id": 244452,
      "adult": false
    },
    {
      "id": 45886,
      "adult": false
    },
    {
      "id": 110381,
      "adult": false
    },
    {
      "id": 244453,
      "adult": false
    },
    {
      "id": 232008,
      "adult": false
    },
    {
      "id": 119272,
      "adult": false
    },
    {
      "id": 244454,
      "adult": false
    },
    {
      "id": 63367,
      "adult": false
    },
    {
      "id": 244455,
      "adult": false
    },
    {
      "id": 15260,
      "adult": false
    },
    {
      "id": 240300,
      "adult": false
    },
    {
      "id": 209479,
      "adult": false
    },
    {
      "id": 69881,
      "adult": false
    },
    {
      "id": 94678,
      "adult": false
    },
    {
      "id": 233845,
      "adult": false
    },
    {
      "id": 210455,
      "adult": false
    },
    {
      "id": 61583,
      "adult": false
    },
    {
      "id": 98967,
      "adult": false
    },
    {
      "id": 244456,
      "adult": false
    },
    {
      "id": 10557,
      "adult": false
    },
    {
      "id": 244457,
      "adult": false
    },
    {
      "id": 100216,
      "adult": false
    },
    {
      "id": 202783,
      "adult": false
    },
    {
      "id": 244458,
      "adult": false
    },
    {
      "id": 65712,
      "adult": false
    },
    {
      "id": 224022,
      "adult": false
    },
    {
      "id": 6278,
      "adult": false
    },
    {
      "id": 228477,
      "adult": false
    },
    {
      "id": 236065,
      "adult": false
    },
    {
      "id": 242476,
      "adult": false
    },
    {
      "id": 70936,
      "adult": false
    },
    {
      "id": 233981,
      "adult": false
    },
    {
      "id": 215072,
      "adult": false
    },
    {
      "id": 96330,
      "adult": false
    },
    {
      "id": 236009,
      "adult": false
    },
    {
      "id": 91097,
      "adult": false
    },
    {
      "id": 218510,
      "adult": false
    }
  ],
  "page": 1,
  "total_pages": 53,
  "total_results": 5228
}
